
heart_beat_kill_pid = 36739
heart_beat_timeout = 11
heart: Sat May 30 00:15:08 2015: heart-beat time-out, no activity for 753 seconds
bin/couchdb: line 343: echo: write error: Broken pipe
heart: Sat May 30 00:15:09 2015: Executed "bin/couchdb -k" -> 256. Terminating.

heart_beat_kill_pid = 37142
heart_beat_timeout = 11
heart: Mon Jun  1 18:43:05 2015: heart-beat time-out, no activity for 3594 seconds
bin/couchdb: line 343: echo: write error: Broken pipe
heart: Mon Jun  1 18:43:06 2015: Executed "bin/couchdb -k" -> 256. Terminating.
