
Apache CouchDB has started, time to relax.
Apache CouchDB 1.6.1 (LogLevel=info) is starting.
Apache CouchDB has started. Time to relax.
[info] [<0.31.0>] Apache CouchDB has started on http://127.0.0.1:6018/
[info] [<0.103.0>] 127.0.0.1 - - GET / 200
[info] [<0.104.0>] 127.0.0.1 - - HEAD /_users/_all_docs 200
[info] [<0.105.0>] 127.0.0.1 - - PUT /_config/admins/_hoodie 200
[info] [<0.106.0>] 127.0.0.1 - - PUT /_config/admins/admin 200
[info] [<0.107.0>] 127.0.0.1 - - PUT /app 201
[info] [<0.108.0>] 127.0.0.1 - - PUT /app/_security 200
[info] [<0.109.0>] 127.0.0.1 - - PUT /app/config 201
[info] [<0.110.0>] 127.0.0.1 - - PUT /plugins 201
[info] [<0.111.0>] 127.0.0.1 - - PUT /plugins/_security 200
[info] [<0.114.0>] 127.0.0.1 - - GET / 200
[info] [<0.116.0>] 127.0.0.1 - - GET /_users 200
[info] [<0.113.0>] 127.0.0.1 - - GET /plugins/_all_docs?include_docs=true 200
[info] [<0.112.0>] 127.0.0.1 - - GET /app/config 200
[info] [<0.115.0>] 127.0.0.1 - - GET /_db_updates?feed=longpoll&timeout=0 200
[info] [<0.117.0>] 127.0.0.1 - - GET /_users/_changes?since=1&feed=continuous&heartbeat=30000&include_docs=true 200
[info] [<0.152.0>] 127.0.0.1 - - GET /_db_updates?feed=continuous&heartbeat=true 200
[info] [<0.150.0>] 127.0.0.1 - - GET /plugins/ 200
[info] [<0.118.0>] 127.0.0.1 - - GET /app/ 200
[info] [<0.153.0>] 127.0.0.1 - - GET /_users/_all_docs?include_docs=true 200
[info] [<0.156.0>] 127.0.0.1 - - GET /plugins//_changes?since=1&feed=continuous&heartbeat=30000&include_docs=true 200
[info] [<0.159.0>] 127.0.0.1 - - GET /app//_changes?since=2&feed=continuous&heartbeat=30000 200
[info] [<0.170.0>] 127.0.0.1 - - GET / 200
[info] [<0.169.0>] 127.0.0.1 - - DELETE /_session 200
[info] [<0.171.0>] 127.0.0.1 - - PUT /_users/org.couchdb.user%3Auser%2Ftest_user 201
[info] [<0.181.0>] 127.0.0.1 - - PUT /user%2Fnr2s6wj/ 201
[info] [<0.184.0>] 127.0.0.1 - - GET /user%2Fnr2s6wj/_design/permissions 404
[info] [<0.185.0>] 127.0.0.1 - - PUT /user%2Fnr2s6wj/_design/permissions 201
[info] [<0.183.0>] 127.0.0.1 - - PUT /user%2Fnr2s6wj/_security 200
[info] [<0.182.0>] 127.0.0.1 - - GET /_users/org.couchdb.user%3Auser%2Ftest_user 200
[info] [<0.186.0>] 127.0.0.1 - - PUT /_users/org.couchdb.user%3Auser%2Ftest_user 201
[info] [<0.188.0>] 127.0.0.1 - - GET /user%2Fnr2s6wj/_changes?since=0&include_docs=true&feed=normal 200
[info] [<0.190.0>] 127.0.0.1 - - POST /_session 200
[info] [<0.189.0>] 127.0.0.1 - - GET /user%2Fnr2s6wj/_changes?include_docs=true&since=0 200
[info] [<0.191.0>] 127.0.0.1 - - GET /_users/org.couchdb.user%3Auser%2Ftest_user 200
[info] [<0.192.0>] 127.0.0.1 - - GET /user%2Fnr2s6wj/_changes?include_docs=true&since=1 200
Apache CouchDB is not running.
Apache CouchDB has been shutdown.
